3
0
[[31, 23, 5, 19, 33, 32, 21, 42, 39, 59], [45, 49, 30, 13, 43, 29, 46, 34, 8, 40], [48, 9, 20, 26, 24, 41, 3, 58, 47, 27], [37, 4, 17, 2, 7, 50, 14, 55, 57, 22]]
[6, 56, 54, 18, 25, 51, 28, 38, 36, 60, 10, 12, 11, 53, 1, 44]
[16, 15, 35, 52]
[0, 0, 0, 0]
